%YAML 1.1
%TAG !u! tag:unity3d.com,2011:
--- !u!1045 &1
EditorBuildSettings:
  m_ObjectHideFlags: 0
  serializedVersion: 2
  m_Scenes:
  - enabled: 1
    path: Assets/Scenes/FingerDriver.unity
    guid: bfe200993fea27b45b90b8d223087bf9
  - enabled: 1
    path: Assets/Scenes/End.unity
    guid: 898586f1795a26e47881db04aa11e142
  - enabled: 1
    path: Assets/Scenes/Start.unity
    guid: a509145c24c49964e8753f16ce77f1b4
  - enabled: 0
    path: Assets/Scenes/VintyFallingBlocks.unity
    guid: e4e5cd4c3e92f3846a6f8a02ae71b59b
  m_configObjects: {}
